{
  "project_info": {
    "project_number": "783820482344",
    "firebase_url": "https://xbo-token-beb95.firebaseio.com",
    "project_id": "xbo-token-beb95",
    "storage_bucket": "xbo-token-beb95.appspot.com"
  },
  "client": [
    {
      "client_info": {
        "mobilesdk_app_id": "1:783820482344:android:f4fb2c1a00eb6742",
        "android_client_info": {
          "package_name": "com.anandtech.xbo"
        }
      },
      "oauth_client": [
        {
          "client_id": "783820482344-vict0tu6ecbrd3eam997p1t6etettj40.apps.googleusercontent.com",
          "client_type": 1,
          "android_info": {
            "package_name": "com.anandtech.xbo",
            "certificate_hash": "343f2118d735e4c55539796c6000af3a2524867f"
          }
        },
        {
          "client_id": "783820482344-vef0pat1h1khgk7c6kptm1slqd0lvqn1.apps.googleusercontent.com",
          "client_type": 3
        }
      ],
      "api_key": [
        {
          "current_key": "AIzaSyD3b5J48H9bYz3vfqKGvh-pLvCe_AWWE1E"
        }
      ],
      "services": {
        "appinvite_service": {
          "other_platform_oauth_client": [
            {
              "client_id": "783820482344-vef0pat1h1khgk7c6kptm1slqd0lvqn1.apps.googleusercontent.com",
              "client_type": 3
            }
          ]
        }
      }
    }
  ],
  "configuration_version": "1"
}